{
  "type": "service_account",
  "project_id": "ohoo-114f5",
  "private_key_id": "bf723a32fae45f7fd6ae9c136f76f3e2eb5b5601",
  "private_key": "-----BEGIN PRIVATE KEY-----\nMIIEvAIBADANBgkqhkiG9w0BAQEFAASCBKYwggSiAgEAAoIBAQD4Zq6g2Pq37lSv\nw/uTFL+t0eAMUKuBRwwNkwV+KL2yHgOiZn4TUwRhQEjPgkQx0yusNcdlChf8/FeL\nsJ6Y8ETmWNKrsVKmMVe1KwLeU1kgYEyh8yAeun8KlmwgvlGm/uWCfV+uKyx2cPcI\nNHuSb+8IAmgVFcmtceseFVVQ7CBapsSj5Z2QwUC7NEsZLJ7MGwgyNEID1nj6XPik\nl3001h2AIlkY4EBZaHKau+UDiT/eXRV6c9dxHE9zQ3NkWTpJ1IC4UQq3gdWkw0an\nRSCYJc5maSUGpsdYAVnCsjOc8QdHIykRCSX5CyAK03vV4B3CVecgIYgXiFJXq5Zj\nygAmLeWlAgMBAAECggEAGbsjQECxuf9bcOibhQkbcPFCZOwvU+Es77QI1+B3A/4l\ncLtuuGg7ViqfUDWFhGbESZ65hK8mvHtUQ0FcsGmFLZpKWmQwNEx8siTeM3MNUrP/\nBDCn5V76vXlHAp5MXYDee+WqVWOeA7fgcw5itZDYQStkpjh/T3LzQMbDc3I+SL10\n9xm5LC30D29khKd30rC5c7+NCYAkWQVcTjmnT+cy0srronGdNXLAOHBif2cOHA8z\nQ0UBmRp/B3gxPrGl4CUslqzzh4rxdc2QQ+Iws3n21WBLz5nkN1Zp95GUA6AE6fat\nL+niuQ6KlML6nAU6O5hX/fTNUdzVTGh8EFT6RoB8CQKBgQD9FSSkUJTRAZGs8mxR\nnVvmT5RcEGO6she5hawqifFOuWgS7YorPlbBg2UWgkh0l2SlP2RSs40XocAwo8vd\n+WEBW1XywH5hCSQSZJwCpPiYQGn4ZeTQvbH1E1vz3j7xYakmDlfFvbBqjVVYD3yW\ndAhuvHxkrQ2U4gBveVCQhdNe6QKBgQD7Q7lHsKMjAAMjCaZBKopLyni56fBNd+Yr\nMpFAo+rJGfF0h1tWT/yFXoymEc0EI4V1pw9MGMP/MIXTirdxFMPA1Ry5A0K7Wdim\n48HN1t6TXN5ZwreBfMnEj9Q2205yP1qJnGmlu4c4QVDMiymun+mTHSoZ0nUdg+5Q\nR9nO0xwzXQKBgBGLKKoXR+mhITcK6wVRUjCJ7a/gFvm3JLvgj0m3nDmn0pYVT1Gm\nFZ9+e0BvMZSbdgeaeFrfRXWQ6eC1SgmOIvJUIYYdX+VcG9sGjGYGh5EOTgpBDfaG\nX9KsT+B81IIpEe+oaN81Qghw2aysDifjzT3X5QuZj2p1rDAOCc6q6DcZAoGAb4ls\noepDQLIssk0CRENCCMrkNIMobPsgbWSRHgSloIenq3a6kOII0ptaDA4y1/d8svFp\n1PnZZ1p+zZzyOXxiOSNhEK/l24zSo6LO0TTksL205luNYimm116RcZiAhi6hXhzU\nuQE50TsNRv8vjZjm8qsrmTLXUjbSf0il4y3LgvECgYAo58tklHTqvPCyA1FJa9TW\nEChoycZBCpPJE29JYqC7/QJtiUXz/6zcFESphYNbnju37P92usbj3mH+TZF3pMGO\nAJIPRuGUHkKPQLwBc3QMyeJRzCx18YQU3ewsejLQznV7Yzil0NFyshOIlqOaIiX3\nUteN5h0zOxt1S/x9pvHlGw==\n-----END PRIVATE KEY-----\n",
  "client_email": "firebase-adminsdk-e24r4@ohoo-114f5.iam.gserviceaccount.com",
  "client_id": "107259855628579889207",
  "auth_uri": "https://accounts.google.com/o/oauth2/auth",
  "token_uri": "https://oauth2.googleapis.com/token",
  "auth_provider_x509_cert_url": "https://www.googleapis.com/oauth2/v1/certs",
  "client_x509_cert_url": "https://www.googleapis.com/robot/v1/metadata/x509/firebase-adminsdk-e24r4%40ohoo-114f5.iam.gserviceaccount.com"
}
